{
    "annotations": {
      "list": [
        {
          "builtIn": 1,
          "datasource": "-- Grafana --",
          "enable": true,
          "hide": true,
          "iconColor": "rgba(0, 211, 255, 1)",
          "name": "Annotations & Alerts",
          "type": "dashboard"
        }
      ]
    },
    "editable": true,
    "gnetId": null,
    "graphTooltip": 0,
    "id": 2,
    "links": [],
    "panels": [
      {
        "aliasColors": {},
        "bars": false,
        "dashLength": 10,
        "dashes": false,
        "datasource": null,
        "fill": 1,
        "fillGradient": 0,
        "gridPos": {
          "h": 11,
          "w": 12,
          "x": 0,
          "y": 0
        },
        "id": 7,
        "legend": {
          "avg": false,
          "current": false,
          "max": false,
          "min": false,
          "show": true,
          "total": false,
          "values": false
        },
        "lines": true,
        "linewidth": 1,
        "nullPointMode": "null",
        "options": {
          "dataLinks": []
        },
        "percentage": false,
        "pointradius": 2,
        "points": true,
        "renderer": "flot",
        "seriesOverrides": [],
        "spaceLength": 10,
        "stack": false,
        "steppedLine": false,
        "targets": [
          {
            "format": "time_series",
            "group": [
              {
                "params": [
                  "$__interval",
                  "none"
                ],
                "type": "time"
              }
            ],
            "metricColumn": "host",
            "rawQuery": false,
            "rawSql": "SELECT\n  $__timeGroupAlias(timestamp,$__interval),\n  host AS metric,\n  provisioned,\n  capacity AS \"capacity\"\nFROM datastore\nWHERE\n  $__timeFilter(timestamp)\nGROUP BY 1,2\nORDER BY $__timeGroup(timestamp,$__interval)",
            "refId": "A",
            "select": [
              [
                {
                  "params": [
                    "provisioned"
                  ],
                  "type": "column"
                }
              ],
              [
                {
                  "params": [
                    "capacity"
                  ],
                  "type": "column"
                },
                {
                  "params": [
                    "capacity"
                  ],
                  "type": "alias"
                }
              ]
            ],
            "table": "datastore",
            "timeColumn": "timestamp",
            "timeColumnType": "datetime",
            "where": [
              {
                "name": "$__timeFilter",
                "params": [],
                "type": "macro"
              }
            ]
          }
        ],
        "thresholds": [],
        "timeFrom": null,
        "timeRegions": [],
        "timeShift": null,
        "title": "Datastore usage",
        "tooltip": {
          "shared": true,
          "sort": 0,
          "value_type": "individual"
        },
        "transparent": true,
        "type": "graph",
        "xaxis": {
          "buckets": null,
          "mode": "time",
          "name": null,
          "show": true,
          "values": []
        },
        "yaxes": [
          {
            "format": "short",
            "label": "Size (GB)",
            "logBase": 1,
            "max": null,
            "min": null,
            "show": true
          },
          {
            "format": "short",
            "label": null,
            "logBase": 1,
            "max": null,
            "min": null,
            "show": true
          }
        ],
        "yaxis": {
          "align": false,
          "alignLevel": null
        }
      },
      {
        "aliasColors": {},
        "bars": false,
        "dashLength": 10,
        "dashes": false,
        "datasource": null,
        "fill": 1,
        "fillGradient": 0,
        "gridPos": {
          "h": 11,
          "w": 12,
          "x": 12,
          "y": 0
        },
        "id": 3,
        "legend": {
          "avg": false,
          "current": false,
          "max": false,
          "min": false,
          "show": true,
          "total": false,
          "values": false
        },
        "lines": true,
        "linewidth": 1,
        "nullPointMode": "null",
        "options": {
          "dataLinks": []
        },
        "percentage": false,
        "pointradius": 2,
        "points": true,
        "renderer": "flot",
        "seriesOverrides": [],
        "spaceLength": 10,
        "stack": false,
        "steppedLine": false,
        "targets": [
          {
            "format": "time_series",
            "group": [
              {
                "params": [
                  "$__interval",
                  "none"
                ],
                "type": "time"
              }
            ],
            "metricColumn": "host",
            "rawQuery": false,
            "rawSql": "SELECT\n  $__timeGroupAlias(timestamp,$__interval),\n  host AS metric,\n  overall_cpu\nFROM host_data\nWHERE\n  $__timeFilter(timestamp)\nGROUP BY 1,2\nORDER BY $__timeGroup(timestamp,$__interval)",
            "refId": "A",
            "select": [
              [
                {
                  "params": [
                    "overall_cpu"
                  ],
                  "type": "column"
                }
              ]
            ],
            "table": "host_data",
            "timeColumn": "timestamp",
            "timeColumnType": "datetime",
            "where": [
              {
                "name": "$__timeFilter",
                "params": [],
                "type": "macro"
              }
            ]
          }
        ],
        "thresholds": [],
        "timeFrom": null,
        "timeRegions": [],
        "timeShift": null,
        "title": "CPU Usage by host",
        "tooltip": {
          "shared": true,
          "sort": 0,
          "value_type": "individual"
        },
        "transparent": true,
        "type": "graph",
        "xaxis": {
          "buckets": null,
          "mode": "time",
          "name": null,
          "show": true,
          "values": []
        },
        "yaxes": [
          {
            "format": "short",
            "label": "CPU (MHz)",
            "logBase": 1,
            "max": null,
            "min": null,
            "show": true
          },
          {
            "format": "short",
            "label": null,
            "logBase": 1,
            "max": null,
            "min": null,
            "show": true
          }
        ],
        "yaxis": {
          "align": false,
          "alignLevel": null
        }
      },
      {
        "bars": false,
        "dashLength": 10,
        "dashes": false,
        "datasource": null,
        "fill": 1,
        "fillGradient": 0,
        "gridPos": {
          "h": 11,
          "w": 12,
          "x": 0,
          "y": 11
        },
        "id": 5,
        "legend": {
          "avg": false,
          "current": false,
          "max": false,
          "min": false,
          "show": true,
          "total": false,
          "values": false
        },
        "lines": true,
        "linewidth": 1,
        "nullPointMode": "null",
        "options": {
          "dataLinks": []
        },
        "percentage": false,
        "pointradius": 2,
        "points": false,
        "renderer": "flot",
        "seriesOverrides": [],
        "spaceLength": 10,
        "stack": false,
        "steppedLine": false,
        "targets": [
          {
            "format": "time_series",
            "group": [
              {
                "params": [
                  "$__interval",
                  "none"
                ],
                "type": "time"
              }
            ],
            "metricColumn": "host",
            "rawQuery": false,
            "rawSql": "SELECT\n  $__timeGroupAlias(timestamp,$__interval),\n  host AS metric,\n  avg(tot) AS \"tot\"\nFROM network\nWHERE\n  $__timeFilter(timestamp)\nGROUP BY 1,2\nORDER BY $__timeGroup(timestamp,$__interval)",
            "refId": "A",
            "select": [
              [
                {
                  "params": [
                    "tot"
                  ],
                  "type": "column"
                },
                {
                  "params": [
                    "avg"
                  ],
                  "type": "aggregate"
                },
                {
                  "params": [
                    "tot"
                  ],
                  "type": "alias"
                }
              ]
            ],
            "table": "network",
            "timeColumn": "timestamp",
            "timeColumnType": "datetime",
            "where": [
              {
                "name": "$__timeFilter",
                "params": [],
                "type": "macro"
              }
            ]
          }
        ],
        "thresholds": [],
        "timeFrom": null,
        "timeRegions": [],
        "timeShift": null,
        "title": "Total network usage by host",
        "tooltip": {
          "shared": true,
          "sort": 0,
          "value_type": "individual"
        },
        "transparent": true,
        "type": "graph",
        "xaxis": {
          "buckets": null,
          "mode": "time",
          "name": null,
          "show": true,
          "values": []
        },
        "yaxes": [
          {
            "format": "short",
            "label": "Bandwith (kb/s)",
            "logBase": 1,
            "max": null,
            "min": null,
            "show": true
          },
          {
            "format": "short",
            "label": null,
            "logBase": 1,
            "max": null,
            "min": null,
            "show": true
          }
        ],
        "yaxis": {
          "align": false,
          "alignLevel": null
        }
      },
      {
        "aliasColors": {},
        "bars": false,
        "dashLength": 10,
        "dashes": false,
        "datasource": null,
        "fill": 1,
        "fillGradient": 0,
        "gridPos": {
          "h": 11,
          "w": 12,
          "x": 12,
          "y": 11
        },
        "id": 2,
        "legend": {
          "avg": false,
          "current": false,
          "max": false,
          "min": false,
          "show": true,
          "total": false,
          "values": false
        },
        "lines": true,
        "linewidth": 1,
        "nullPointMode": "null",
        "options": {
          "dataLinks": []
        },
        "percentage": false,
        "pointradius": 2,
        "points": true,
        "renderer": "flot",
        "seriesOverrides": [],
        "spaceLength": 10,
        "stack": false,
        "steppedLine": false,
        "targets": [
          {
            "format": "time_series",
            "group": [
              {
                "params": [
                  "$__interval",
                  "none"
                ],
                "type": "time"
              }
            ],
            "metricColumn": "host",
            "rawQuery": false,
            "rawSql": "SELECT\n  $__timeGroupAlias(timestamp,$__interval),\n  host AS metric,\n  avg(overall_memory) AS \"overall_memory\"\nFROM host_data\nWHERE\n  $__timeFilter(timestamp)\nGROUP BY 1,2\nORDER BY $__timeGroup(timestamp,$__interval)",
            "refId": "A",
            "select": [
              [
                {
                  "params": [
                    "overall_memory"
                  ],
                  "type": "column"
                },
                {
                  "params": [
                    "avg"
                  ],
                  "type": "aggregate"
                },
                {
                  "params": [
                    "overall_memory"
                  ],
                  "type": "alias"
                }
              ]
            ],
            "table": "host_data",
            "timeColumn": "timestamp",
            "timeColumnType": "datetime",
            "where": [
              {
                "name": "$__timeFilter",
                "params": [],
                "type": "macro"
              }
            ]
          }
        ],
        "thresholds": [],
        "timeFrom": null,
        "timeRegions": [],
        "timeShift": null,
        "title": "RAM Usage by host",
        "tooltip": {
          "shared": true,
          "sort": 0,
          "value_type": "individual"
        },
        "transparent": true,
        "type": "graph",
        "xaxis": {
          "buckets": null,
          "mode": "time",
          "name": null,
          "show": true,
          "values": []
        },
        "yaxes": [
          {
            "format": "short",
            "label": "Size (Gb)",
            "logBase": 1,
            "max": null,
            "min": null,
            "show": true
          },
          {
            "format": "short",
            "label": null,
            "logBase": 1,
            "max": null,
            "min": null,
            "show": true
          }
        ],
        "yaxis": {
          "align": false,
          "alignLevel": null
        }
      }
    ],
    "refresh": "10s",
    "schemaVersion": 20,
    "style": "dark",
    "tags": [],
    "templating": {
      "list": []
    },
    "time": {
      "from": "now-24h",
      "to": "now"
    },
    "timepicker": {},
    "timezone": "",
    "title": "Main",
    "uid": "hpSbRooZk",
    "version": 20
  }