<?xml version="1.0" encoding="UTF-8"?>
<svg xmlns="http://www.w3.org/2000/svg" xmlns:xlink="http://www.w3.org/1999/xlink" width="59pt" height="59pt" viewBox="0 0 59 59" version="1.1">
<g id="surface1">
<path style=" stroke:none;fill-rule:nonzero;fill:rgb(33.333333%,37.647059%,50.196078%);fill-opacity:1;" d="M 54.390625 19 L 3.609375 19 C 1.617188 19 0 17.382812 0 15.390625 L 0 3.609375 C 0 1.617188 1.617188 0 3.609375 0 L 54.390625 0 C 56.382812 0 58 1.617188 58 3.609375 L 58 15.390625 C 58 17.382812 56.382812 19 54.390625 19 Z M 54.390625 19 "/>
<path style=" stroke:none;fill-rule:nonzero;fill:rgb(21.960784%,27.058824%,30.980392%);fill-opacity:1;" d="M 54.390625 38 L 3.609375 38 C 1.617188 38 0 36.382812 0 34.390625 L 0 22.609375 C 0 20.617188 1.617188 19 3.609375 19 L 54.390625 19 C 56.382812 19 58 20.617188 58 22.609375 L 58 34.390625 C 58 36.382812 56.382812 38 54.390625 38 Z M 54.390625 38 "/>
<path style=" stroke:none;fill-rule:nonzero;fill:rgb(33.333333%,37.647059%,50.196078%);fill-opacity:1;" d="M 54.390625 57 L 3.609375 57 C 1.617188 57 0 55.382812 0 53.390625 L 0 41.609375 C 0 39.617188 1.617188 38 3.609375 38 L 54.390625 38 C 56.382812 38 58 39.617188 58 41.609375 L 58 53.390625 C 58 55.382812 56.382812 57 54.390625 57 Z M 54.390625 57 "/>
<path style=" stroke:none;fill-rule:nonzero;fill:rgb(52.54902%,59.215686%,79.607843%);fill-opacity:1;" d="M 13 9.5 C 13 11.433594 11.433594 13 9.5 13 C 7.566406 13 6 11.433594 6 9.5 C 6 7.566406 7.566406 6 9.5 6 C 11.433594 6 13 7.566406 13 9.5 Z M 13 9.5 "/>
<path style=" stroke:none;fill-rule:nonzero;fill:rgb(52.54902%,59.215686%,79.607843%);fill-opacity:1;" d="M 50 8 C 50 8.550781 49.550781 9 49 9 C 48.449219 9 48 8.550781 48 8 C 48 7.449219 48.449219 7 49 7 C 49.550781 7 50 7.449219 50 8 Z M 50 8 "/>
<path style=" stroke:none;fill-rule:nonzero;fill:rgb(52.54902%,59.215686%,79.607843%);fill-opacity:1;" d="M 46 8 C 46 8.550781 45.550781 9 45 9 C 44.449219 9 44 8.550781 44 8 C 44 7.449219 44.449219 7 45 7 C 45.550781 7 46 7.449219 46 8 Z M 46 8 "/>
<path style=" stroke:none;fill-rule:nonzero;fill:rgb(52.54902%,59.215686%,79.607843%);fill-opacity:1;" d="M 52 11 C 52 11.550781 51.550781 12 51 12 C 50.449219 12 50 11.550781 50 11 C 50 10.449219 50.449219 10 51 10 C 51.550781 10 52 10.449219 52 11 Z M 52 11 "/>
<path style=" stroke:none;fill-rule:nonzero;fill:rgb(52.54902%,59.215686%,79.607843%);fill-opacity:1;" d="M 48 11 C 48 11.550781 47.550781 12 47 12 C 46.449219 12 46 11.550781 46 11 C 46 10.449219 46.449219 10 47 10 C 47.550781 10 48 10.449219 48 11 Z M 48 11 "/>
<path style=" stroke:none;fill-rule:nonzero;fill:rgb(52.54902%,59.215686%,79.607843%);fill-opacity:1;" d="M 42 8 C 42 8.550781 41.550781 9 41 9 C 40.449219 9 40 8.550781 40 8 C 40 7.449219 40.449219 7 41 7 C 41.550781 7 42 7.449219 42 8 Z M 42 8 "/>
<path style=" stroke:none;fill-rule:nonzero;fill:rgb(52.54902%,59.215686%,79.607843%);fill-opacity:1;" d="M 44 11 C 44 11.550781 43.550781 12 43 12 C 42.449219 12 42 11.550781 42 11 C 42 10.449219 42.449219 10 43 10 C 43.550781 10 44 10.449219 44 11 Z M 44 11 "/>
<path style=" stroke:none;fill-rule:nonzero;fill:rgb(52.54902%,59.215686%,79.607843%);fill-opacity:1;" d="M 38 8 C 38 8.550781 37.550781 9 37 9 C 36.449219 9 36 8.550781 36 8 C 36 7.449219 36.449219 7 37 7 C 37.550781 7 38 7.449219 38 8 Z M 38 8 "/>
<path style=" stroke:none;fill-rule:nonzero;fill:rgb(52.54902%,59.215686%,79.607843%);fill-opacity:1;" d="M 40 11 C 40 11.550781 39.550781 12 39 12 C 38.449219 12 38 11.550781 38 11 C 38 10.449219 38.449219 10 39 10 C 39.550781 10 40 10.449219 40 11 Z M 40 11 "/>
<path style=" stroke:none;fill-rule:nonzero;fill:rgb(52.54902%,59.215686%,79.607843%);fill-opacity:1;" d="M 34 8 C 34 8.550781 33.550781 9 33 9 C 32.449219 9 32 8.550781 32 8 C 32 7.449219 32.449219 7 33 7 C 33.550781 7 34 7.449219 34 8 Z M 34 8 "/>
<path style=" stroke:none;fill-rule:nonzero;fill:rgb(52.54902%,59.215686%,79.607843%);fill-opacity:1;" d="M 36 11 C 36 11.550781 35.550781 12 35 12 C 34.449219 12 34 11.550781 34 11 C 34 10.449219 34.449219 10 35 10 C 35.550781 10 36 10.449219 36 11 Z M 36 11 "/>
<path style=" stroke:none;fill-rule:nonzero;fill:rgb(52.54902%,59.215686%,79.607843%);fill-opacity:1;" d="M 13 28.5 C 13 30.433594 11.433594 32 9.5 32 C 7.566406 32 6 30.433594 6 28.5 C 6 26.566406 7.566406 25 9.5 25 C 11.433594 25 13 26.566406 13 28.5 Z M 13 28.5 "/>
<path style=" stroke:none;fill-rule:nonzero;fill:rgb(52.54902%,59.215686%,79.607843%);fill-opacity:1;" d="M 50 27 C 50 27.550781 49.550781 28 49 28 C 48.449219 28 48 27.550781 48 27 C 48 26.449219 48.449219 26 49 26 C 49.550781 26 50 26.449219 50 27 Z M 50 27 "/>
<path style=" stroke:none;fill-rule:nonzero;fill:rgb(52.54902%,59.215686%,79.607843%);fill-opacity:1;" d="M 46 27 C 46 27.550781 45.550781 28 45 28 C 44.449219 28 44 27.550781 44 27 C 44 26.449219 44.449219 26 45 26 C 45.550781 26 46 26.449219 46 27 Z M 46 27 "/>
<path style=" stroke:none;fill-rule:nonzero;fill:rgb(52.54902%,59.215686%,79.607843%);fill-opacity:1;" d="M 52 30 C 52 30.550781 51.550781 31 51 31 C 50.449219 31 50 30.550781 50 30 C 50 29.449219 50.449219 29 51 29 C 51.550781 29 52 29.449219 52 30 Z M 52 30 "/>
<path style=" stroke:none;fill-rule:nonzero;fill:rgb(52.54902%,59.215686%,79.607843%);fill-opacity:1;" d="M 48 30 C 48 30.550781 47.550781 31 47 31 C 46.449219 31 46 30.550781 46 30 C 46 29.449219 46.449219 29 47 29 C 47.550781 29 48 29.449219 48 30 Z M 48 30 "/>
<path style=" stroke:none;fill-rule:nonzero;fill:rgb(52.54902%,59.215686%,79.607843%);fill-opacity:1;" d="M 42 27 C 42 27.550781 41.550781 28 41 28 C 40.449219 28 40 27.550781 40 27 C 40 26.449219 40.449219 26 41 26 C 41.550781 26 42 26.449219 42 27 Z M 42 27 "/>
<path style=" stroke:none;fill-rule:nonzero;fill:rgb(52.54902%,59.215686%,79.607843%);fill-opacity:1;" d="M 44 30 C 44 30.550781 43.550781 31 43 31 C 42.449219 31 42 30.550781 42 30 C 42 29.449219 42.449219 29 43 29 C 43.550781 29 44 29.449219 44 30 Z M 44 30 "/>
<path style=" stroke:none;fill-rule:nonzero;fill:rgb(52.54902%,59.215686%,79.607843%);fill-opacity:1;" d="M 38 27 C 38 27.550781 37.550781 28 37 28 C 36.449219 28 36 27.550781 36 27 C 36 26.449219 36.449219 26 37 26 C 37.550781 26 38 26.449219 38 27 Z M 38 27 "/>
<path style=" stroke:none;fill-rule:nonzero;fill:rgb(52.54902%,59.215686%,79.607843%);fill-opacity:1;" d="M 40 30 C 40 30.550781 39.550781 31 39 31 C 38.449219 31 38 30.550781 38 30 C 38 29.449219 38.449219 29 39 29 C 39.550781 29 40 29.449219 40 30 Z M 40 30 "/>
<path style=" stroke:none;fill-rule:nonzero;fill:rgb(52.54902%,59.215686%,79.607843%);fill-opacity:1;" d="M 34 27 C 34 27.550781 33.550781 28 33 28 C 32.449219 28 32 27.550781 32 27 C 32 26.449219 32.449219 26 33 26 C 33.550781 26 34 26.449219 34 27 Z M 34 27 "/>
<path style=" stroke:none;fill-rule:nonzero;fill:rgb(52.54902%,59.215686%,79.607843%);fill-opacity:1;" d="M 36 30 C 36 30.550781 35.550781 31 35 31 C 34.449219 31 34 30.550781 34 30 C 34 29.449219 34.449219 29 35 29 C 35.550781 29 36 29.449219 36 30 Z M 36 30 "/>
<path style=" stroke:none;fill-rule:nonzero;fill:rgb(52.54902%,59.215686%,79.607843%);fill-opacity:1;" d="M 13 47.5 C 13 49.433594 11.433594 51 9.5 51 C 7.566406 51 6 49.433594 6 47.5 C 6 45.566406 7.566406 44 9.5 44 C 11.433594 44 13 45.566406 13 47.5 Z M 13 47.5 "/>
<path style=" stroke:none;fill-rule:nonzero;fill:rgb(52.54902%,59.215686%,79.607843%);fill-opacity:1;" d="M 50 46 C 50 46.550781 49.550781 47 49 47 C 48.449219 47 48 46.550781 48 46 C 48 45.449219 48.449219 45 49 45 C 49.550781 45 50 45.449219 50 46 Z M 50 46 "/>
<path style=" stroke:none;fill-rule:nonzero;fill:rgb(52.54902%,59.215686%,79.607843%);fill-opacity:1;" d="M 46 46 C 46 46.550781 45.550781 47 45 47 C 44.449219 47 44 46.550781 44 46 C 44 45.449219 44.449219 45 45 45 C 45.550781 45 46 45.449219 46 46 Z M 46 46 "/>
<path style=" stroke:none;fill-rule:nonzero;fill:rgb(52.54902%,59.215686%,79.607843%);fill-opacity:1;" d="M 52 49 C 52 49.550781 51.550781 50 51 50 C 50.449219 50 50 49.550781 50 49 C 50 48.449219 50.449219 48 51 48 C 51.550781 48 52 48.449219 52 49 Z M 52 49 "/>
<path style=" stroke:none;fill-rule:nonzero;fill:rgb(52.54902%,59.215686%,79.607843%);fill-opacity:1;" d="M 48 49 C 48 49.550781 47.550781 50 47 50 C 46.449219 50 46 49.550781 46 49 C 46 48.449219 46.449219 48 47 48 C 47.550781 48 48 48.449219 48 49 Z M 48 49 "/>
<path style=" stroke:none;fill-rule:nonzero;fill:rgb(52.54902%,59.215686%,79.607843%);fill-opacity:1;" d="M 42 46 C 42 46.550781 41.550781 47 41 47 C 40.449219 47 40 46.550781 40 46 C 40 45.449219 40.449219 45 41 45 C 41.550781 45 42 45.449219 42 46 Z M 42 46 "/>
<path style=" stroke:none;fill-rule:nonzero;fill:rgb(52.54902%,59.215686%,79.607843%);fill-opacity:1;" d="M 44 49 C 44 49.550781 43.550781 50 43 50 C 42.449219 50 42 49.550781 42 49 C 42 48.449219 42.449219 48 43 48 C 43.550781 48 44 48.449219 44 49 Z M 44 49 "/>
<path style=" stroke:none;fill-rule:nonzero;fill:rgb(52.54902%,59.215686%,79.607843%);fill-opacity:1;" d="M 38 46 C 38 46.550781 37.550781 47 37 47 C 36.449219 47 36 46.550781 36 46 C 36 45.449219 36.449219 45 37 45 C 37.550781 45 38 45.449219 38 46 Z M 38 46 "/>
<path style=" stroke:none;fill-rule:nonzero;fill:rgb(52.54902%,59.215686%,79.607843%);fill-opacity:1;" d="M 40 49 C 40 49.550781 39.550781 50 39 50 C 38.449219 50 38 49.550781 38 49 C 38 48.449219 38.449219 48 39 48 C 39.550781 48 40 48.449219 40 49 Z M 40 49 "/>
<path style=" stroke:none;fill-rule:nonzero;fill:rgb(52.54902%,59.215686%,79.607843%);fill-opacity:1;" d="M 34 46 C 34 46.550781 33.550781 47 33 47 C 32.449219 47 32 46.550781 32 46 C 32 45.449219 32.449219 45 33 45 C 33.550781 45 34 45.449219 34 46 Z M 34 46 "/>
<path style=" stroke:none;fill-rule:nonzero;fill:rgb(52.54902%,59.215686%,79.607843%);fill-opacity:1;" d="M 36 49 C 36 49.550781 35.550781 50 35 50 C 34.449219 50 34 49.550781 34 49 C 34 48.449219 34.449219 48 35 48 C 35.550781 48 36 48.449219 36 49 Z M 36 49 "/>
<path style=" stroke:none;fill-rule:nonzero;fill:rgb(94.901961%,61.176471%,12.941176%);fill-opacity:1;" d="M 59 47 C 59 53.628906 53.628906 59 47 59 C 40.371094 59 35 53.628906 35 47 C 35 40.371094 40.371094 35 47 35 C 53.628906 35 59 40.371094 59 47 Z M 59 47 "/>
<path style=" stroke:none;fill-rule:nonzero;fill:rgb(100%,100%,100%);fill-opacity:1;" d="M 53 48 L 41 48 C 40.449219 48 40 47.550781 40 47 C 40 46.449219 40.449219 46 41 46 L 53 46 C 53.550781 46 54 46.449219 54 47 C 54 47.550781 53.550781 48 53 48 Z M 53 48 "/>
</g>
</svg>
